AWSTATS DATA FILE 7.0 (build 1.971)
# If you remove this file, all statistics for date 201504 will be lost/reset.
# Last config file used to build this data file was /etc/awstats/awstats.comfort-beby.ru.conf.

# Position (offset in bytes) in this file for beginning of each section for
# direct I/O access. If you made changes somewhere in this file, you should
# also remove completely the MAP section (AWStats will rewrite it at next
# update).
BEGIN_MAP 27
POS_GENERAL 1995                
POS_TIME 2675                
POS_VISITOR 26235               
POS_DAY 34708               
POS_DOMAIN 3665                
POS_LOGIN 3901                
POS_ROBOT 4056                
POS_WORMS 4838                
POS_EMAILSENDER 4969                
POS_EMAILRECEIVER 5112                
POS_SESSION 35606               
POS_SIDER 35819               
POS_FILETYPES 5247                
POS_DOWNLOADS 5604                
POS_OS 5722                
POS_BROWSER 5915                
POS_SCREENSIZE 7068                
POS_UNKNOWNREFERER 7142                
POS_UNKNOWNREFERERBROWSER 7870                
POS_ORIGIN 8306                
POS_SEREFERRALS 8455                
POS_PAGEREFS 8633                
POS_SEARCHWORDS 11134               
POS_KEYWORDS 11518               
POS_MISC 2339                
POS_ERRORS 11817               
POS_CLUSTER 3757                
POS_SIDER_404 11992               
END_MAP

# LastLine    = Date of last record processed - Last record line number in last log - Last record offset in last log - Last record signature value
# FirstTime   = Date of first visit for history file
# LastTime    = Date of last visit for history file
# LastUpdate  = Date of last update - Nb of parsed records - Nb of parsed old records - Nb of parsed new records - Nb of parsed corrupted - Nb of parsed dropped
# TotalVisits = Number of visits
# TotalUnique = Number of unique visitors
# MonthHostsKnown   = Number of hosts known
# MonthHostsUnKnown = Number of hosts unknown
BEGIN_GENERAL 8
LastLine 20150501000136 7099 1832900 9970587507992
FirstTime 20150402135824
LastTime 20150430214856
LastUpdate 20150501000617 1 0 0 0 0
TotalVisits 376                 
TotalUnique 188                 
MonthHostsKnown 0                   
MonthHostsUnknown 208                 
END_GENERAL

# Misc ID - Pages - Hits - Bandwidth
BEGIN_MISC 10
QuickTimeSupport 0 0 0
JavaEnabled 0 0 0
JavascriptDisabled 0 0 0
PDFSupport 0 0 0
WindowsMediaPlayerSupport 0 0 0
AddToFavourites 0 0 0
RealPlayerSupport 0 0 0
TotalMisc 0 0 0
DirectorSupport 0 0 0
FlashSupport 0 0 0
END_MISC

# Hour - Pages - Hits - Bandwidth - Not viewed Pages - Not viewed Hits - Not viewed Bandwidth
BEGIN_TIME 24
0 102 812 31559100 65 118 6090542
1 21 177 4833614 133 173 6466356
2 28 83 5054514 56 68 2705686
3 15 176 4653988 74 88 5478806
4 21 361 10716202 129 206 8002934
5 12 30 1335412 85 148 9490689
6 102 743 19870422 154 222 9067824
7 202 1288 43133456 107 270 7846997
8 151 980 24241758 128 237 17660208
9 486 3841 83207883 146 279 33872390
10 880 6245 144243863 154 277 23772180
11 421 2673 58596692 129 226 15526014
12 414 2486 75203964 82 155 4372681
13 242 2291 51483097 77 184 5831188
14 433 2109 49175587 151 836 20345995
15 813 4120 86609754 276 747 20516538
16 344 2267 63695190 492 989 68528367
17 391 2483 60693432 199 366 9568332
18 1133 6045 205731960 385 586 26525575
19 441 2475 61162551 157 273 7491842
20 494 4011 66395945 209 338 9009514
21 621 2865 92428636 177 419 8919364
22 614 3357 93831248 154 287 11024348
23 458 3874 92833120 125 245 9847157
END_TIME

# Domain - Pages - Hits - Bandwidth
# The 10 first Pages must be first (order not required for others)
BEGIN_DOMAIN 1
ip 8839 55792 1430691388
END_DOMAIN

# Cluster ID - Pages - Hits - Bandwidth
BEGIN_CLUSTER 0
END_CLUSTER

# Login - Pages - Hits - Bandwidth - Last visit
# The 10 first Pages must be first (order not required for others)
BEGIN_LOGIN 0
END_LOGIN

# Robot ID - Hits - Bandwidth - Last visit - Hits on robots.txt
# The 10 first Hits must be first (order not required for others)
BEGIN_ROBOT 17
yandex 1955 103717254 20150430234752 0
googlebot 853 117297318 20150429231427 0
no_user_agent 410 58403375 20150429153532 0
[\s_+:,\.\;\/\\-]bot 215 6514401 20150416220326 0
mj12bot 94 3451548 20150421015523 0
wordpress 69 697152 20150413011807 0
bot[\s_+:,\.\;\/\\-] 65 2658526 20150429191555 0
java\/[0-9] 48 1652608 20150429224208 0
msnbot\-media 38 1449980 20150427103804 0
slurp 36 1457667 20150421172956 0
exabot 1 54901 20150416075451 0
ng\/1\. 2 126112 20150426072208 0
robot 1 54529 20150412192555 0
python 2 117435 20150427063539 0
surveybot 2 117758 20150430220600 0
checker 1 63106 20150429092715 0
baiduspider 4 234922 20150427193620 0
END_ROBOT

# Worm ID - Hits - Bandwidth - Last visit
# The 5 first Hits must be first (order not required for others)
BEGIN_WORMS 0
END_WORMS

# EMail - Hits - Bandwidth - Last visit
# The 20 first Hits must be first (order not required for others)
BEGIN_EMAILSENDER 0
END_EMAILSENDER

# EMail - Hits - Bandwidth - Last visit
# The 20 first hits must be first (order not required for others)
BEGIN_EMAILRECEIVER 0
END_EMAILRECEIVER

# Files type - Hits - Bandwidth - Bandwidth without compression - Bandwidth after compression
BEGIN_FILETYPES 14
css 6492 15634323 0 0
eot 12 244020 0 0
png 15878 258549381 0 0
ttf 368 16744000 0 0
txt 3 0 0 0
woff 120 2798400 0 0
otf 2031 41236464 0 0
php 12 244886 0 0
html 1225 55135925 0 0
jpg 15292 723011432 0 0
js 8333 81289358 0 0
desc 7 285907 0 0
Unknown 5064 142663856 0 0
gif 955 92853436 0 0
END_FILETYPES

# Downloads - Hits - Bandwidth
BEGIN_DOWNLOADS 2
/yandex_7948d6dcc9d53fda.txt 2 0 0
/yandex_4a9488f89f2b29ae.txt 2 0 0
END_DOWNLOADS

# OS ID - Hits
BEGIN_OS 14
linuxandroid 7
winxp 667
winlong 79
win2000 2
winnt 6
java 3
linuxubuntu 1
winvista 37518
linux 422
win7 8595
winme 20
macosx 8236
win2003 1
Unknown 235
END_OS

# Browser ID - Hits
BEGIN_BROWSER 64
msie6.0 37
chrome40.0.2214.115 14090
firefox26.0 49
firefox18.0 91
chrome31.0.1650.57 176
chrome31.0.1650.63 132
curl 71
safari5.0.2 2
msie8.0 205
chrome42.0.2311.90 2534
chrome11.0.696.34 1
chrome39.0.2171.65 2
chrome27.0.1453.93 3
msie7.0 2
firefox23.0 2
chrome37.0.2062.120 1
chrome41.0.2272.89 107
chrome39.0.2171.71 7
firefox21.0 3
firefox12.0 88
firefox33.0 1
firefox25.0 262
mozilla 405
netscape5.0 1
chrome42.0.2311.135 6582
chrome41.0.2228.0 5
firefox36.0 105
safari 258
chrome37.0.2062.124 3
firefox5.0 2
chrome43.0.2357.2 390
chrome23.0.1271.64 2
chrome38.0.2125.104 1
android 3
chrome28.0.1500.95 125
chrome26.0.1410.58 1
chrome43.0.2357.18 144
opera9.80 383
firefox31.0 2
iphone 74
chrome26.0.1410.65 2
chrome41.0.2272.101 3528
firefox16.0 27
chrome42.0.2311.109 2
safari8.0 8075
msie9.0 7
chrome43.0.2357.10 163
Unknown 68
firefox11.0 1
chrome30.0.0.0 2
chrome10.0.648.127 1
chrome127.0.0.1 1
chrome41.0.2272.118 13633
firefox3.0.11 1
safari5.1.7 1
firefox37.0 149
firefox22.0 1
chrome43.0.2351.3 3576
msie10.0 195
safari6.0.2 1
msie 3
chrome23.0.1271.97 1
firefox3.6.13 1
firefox3.5.7 1
END_BROWSER

# Screen size - Hits
BEGIN_SCREENSIZE 0
END_SCREENSIZE

# Unknown referer OS - Last visit date
BEGIN_UNKNOWNREFERER 12
Yo-yo 20150421003324
PHP/5.2.17 20150429092716
PHP/5.3.25 20150429092629
PHP_(www.kkt.kiev.ua),_hosted_by_www.ukraine.com.ua 20150414021206
URLGrabber 20150422211942
PycURL/7.19.3_libcurl/7.35.0_GnuTLS/2.12.23_zlib/1.2.8_libidn/1.28_librtmp/2.3 20150411125030
Mozilla/5.0_(compatible;_vkShare;__http://vk.com/dev/Share) 20150414155416
Opera/9.80_(iPhone;_Opera_Mini/7.0.5/36.1719;_U;_ru)_Presto/2.12.423_Version/12.16 20150426065536
Mozilla/4.0_(compatible;_Synapse) 20150430060724
MSIE 20150412192558
()_{_:;_};_echo_Content-type:text/plain;echo;echo;echo_M`expr_1330___7`H;/bin/uname_-a;echo_@ 20150424180417
LinkExchanger 20150429092725
END_UNKNOWNREFERER

# Unknown referer Browser - Last visit date
BEGIN_UNKNOWNREFERERBROWSER 8
URLGrabber 20150422211942
Yo-yo 20150421003324
Apache-HttpClient/4.2.5_(java_1.5) 20150424130015
PHP/5.2.17 20150429092716
PHP/5.3.25 20150429092629
PHP_(www.kkt.kiev.ua),_hosted_by_www.ukraine.com.ua 20150414021206
()_{_:;_};_echo_Content-type:text/plain;echo;echo;echo_M`expr_1330___7`H;/bin/uname_-a;echo_@ 20150424180417
LinkExchanger 20150429092725
END_UNKNOWNREFERERBROWSER

# Origin - Pages - Hits 
BEGIN_ORIGIN 6
From0 776 825
From1 65 65
From2 44 58
From3 121 877
From4 7833 53967
From5 0 0
END_ORIGIN

# Search engine referers ID - Pages - Hits
BEGIN_SEREFERRALS 3
google 7 21
bing 1 1
yandex 36 36
END_SEREFERRALS

# External page referers - Pages - Hits
# The 10 first Pages must be first (order not required for others)
BEGIN_PAGEREFS 47
http://u0068489.isp.regruhosting.ru/css/main.css 24 59
http://u0068489.isp.regruhosting.ru/site/inter_man 14 62
http://u0068489.isp.regruhosting.ru/site/index 13 166
http://u0068489.isp.regruhosting.ru/site/catalog 8 81
http://u0068489.isp.regruhosting.ru 6 164
http://u0068489.isp.regruhosting.ru/admin/comment/info 4 18
http://qcomment.ru/reft/191814 4 4
http://www.webviki.ru/comfort-beby.ru 3 3
http://regidium.ru 3 3
http://u0068489.isp.regruhosting.ru/site/basket 3 7
http://u0068489.isp.regruhosting.ru/css/slider.css 0 22
http://hostx.ru 1 1
http://hvd-store.com 1 1
http://u0068489.isp.regruhosting.ru/site/productDetail/5 1 33
http://cheaptop.ru/admin/orders/view/id/21521 1 1
http://u0068489.isp.regruhosting.ru/site/productDetail/3 2 27
http://u0068489.isp.regruhosting.ru/site/productDetail/14 1 38
http://sportblr.com/forum/profile.php 2 2
http://u0068489.isp.regruhosting.ru/css/interActive.css 0 4
http://u0068489.isp.regruhosting.ru/site 1 38
http://info@comfort-beby.ru 1 1
http://u0068489.isp.regruhosting.ru/site/productDetail/20 0 4
http://evrosurf.ru/info.php 1 1
http://u0068489.isp.regruhosting.ru/site/productDetail/17 1 5
http://www.lavr-stroy.ru/communication/forum/index.php 1 1
http://u0068489.isp.regruhosting.ru/admin/default/login 2 10
http://u0068489.isp.regruhosting.ru/site/productDetail/18 1 4
http://u0068489.isp.regruhosting.ru/site/productDetail/9 1 4
http://u0068489.isp.regruhosting.ru/admin/product/info 3 12
http://vk.com/id8809063 1 1
http://vk.com/away.php 2 2
http://articleret.com 2 2
http://cheaptop.ru/admin/orders/view/id/21518 1 1
http://u0068489.isp.regruhosting.ru/site/how 1 4
http://u0068489.isp.regruhosting.ru/css/lightview.css 0 8
http://u0068489.isp.regruhosting.ru/assets/26bba52b/jui/css/base/jquery-ui.css 0 12
http://www.domain2008.com/domains/www.comfort-beby.ru 1 1
http://arterfor.com 2 2
http://u0068489.isp.regruhosting.ru/admin/product/update/id/16 1 12
http://chef-khumalo.info/index.php 1 1
http://u0068489.isp.regruhosting.ru/site/catalog/ 1 6
http://u0068489.isp.regruhosting.ru/css/bootstrap.min.css 1 1
http://u0068489.isp.regruhosting.ru/admin/default/index 1 4
http://u0068489.isp.regruhosting.ru/site/catalog/3/ 1 35
http://u0068489.isp.regruhosting.ru/assets/42098661/gridview/styles.css 0 1
http://articleretin.com 1 1
http://u0068489.isp.regruhosting.ru/site/comment 1 7
END_PAGEREFS

# Search keyphrases - Number of search
# The 10 first number of search must be first (order not required for others)
BEGIN_SEARCHWORDS 2
%d0%ba%d0%be%d1%80%d1%81%d0%b0%d1%80%d1%8b+%d0%ba%d0%b0%d0%b6%d0%b4%d0%be%d0%bc%d1%83+%d1%81%d0%b2%d0%be%d1%91 1
%d0%b4%d0%b5%d1%82%d1%81%d0%ba%d0%b0%d1%8f+%d0%bc%d0%b5%d0%b1%d0%b5%d0%bb%d1%8c+%d0%ba%d0%be%d1%80%d1%81%d0%b0%d1%80 1
END_SEARCHWORDS

# Search keywords - Number of search
# The 10 first number of search must be first (order not required for others)
BEGIN_KEYWORDS 6
%d0%ba%d0%be%d1%80%d1%81%d0%b0%d1%80%d1%8b 1
%d0%bc%d0%b5%d0%b1%d0%b5%d0%bb%d1%8c 1
%d0%ba%d0%b0%d0%b6%d0%b4%d0%be%d0%bc%d1%83 1
%d0%ba%d0%be%d1%80%d1%81%d0%b0%d1%80 1
%d1%81%d0%b2%d0%be%d1%91 1
%d0%b4%d0%b5%d1%82%d1%81%d0%ba%d0%b0%d1%8f 1
END_KEYWORDS

# Errors - Hits - Bandwidth
BEGIN_ERRORS 7
403 253 912585
503 42 26040
302 787 0
206 33 6582571
500 65 1009316
400 24 490557
404 2272 40871866
END_ERRORS

# URL with 404 errors - Hits - Last URL referer
BEGIN_SIDER_404 205
/old/fckeditor/editor/filemanager/browser/default/connectors/php/connector.php 1 -
/admin/content/sitetree/ 2 -
/uploads/product/preview/1634d3672277ace5e87a66d915cf.jpg 106 http://u0068489.isp.regruhosting.ru/site/index
/admin.php 29 -
/uploads/icon/preview/right_green11.png 1 http://comfort-beby.ru/admin/comment/icon_list
/Admin/editor/filemanager/browser/default/connectors/php/connector.php 1 -
/uploads/fckeditor/editor/filemanager/browser/default/connectors/php/connector.php 1 -
/uploads/product/preview/ca0d3329a2e43a4b17f6392ab866.jpg 2 http://u0068489.isp.regruhosting.ru/site/productDetail/9
/Editor/editor/filemanager/browser/default/connectors/php/connector.php 1 -
/admin/editor/filemanager/browser/default/connectors/php/connector.php 1 -
/components/com_content/content.php 1 -
/manager/templates/default/css/login-min.css 2 -
/uploads/product/preview/aacceacb621a9fd9a49f7f3516be.jpg 30 http://u0068489.isp.regruhosting.ru/site/productDetail/14
/wp-content/plugins/revolution-slider/release_log.txt 1 -
/uploads/product/preview/0f1d412ee8678c51adc6654976ac.jpg 2 http://u0068489.isp.regruhosting.ru/site/productDetail/3
/uploads/product/aacceacb621a9fd9a49f7f3516be.jpg 3 http://u0068489.isp.regruhosting.ru/site/productDetail/17
/Administrator/fckeditor/editor/filemanager/browser/default/connectors/php/connector.php 1 -
/xmlrpc.php 3 -
/manager/media/script/mootools/mootools.js 2 -
/old/editor/filemanager/browser/default/connectors/php/connector.php 1 -
/uploads/product/preview/8b6d34dcece818c0ca968bfc429a.jpg 1 http://u0068489.isp.regruhosting.ru/admin/product/update/id/16
/yandex_af72017031486af1.txt 1 -
/uploads/product/605c0a22f8943da442ed89aa3834.jpg 2 http://u0068489.isp.regruhosting.ru/site/productDetail/14
/admin/FCKeditor/editor/filemanager/browser/default/connectors/php/connector.php 1 -
/node/ 2 -
/v2/editor/filemanager/browser/default/connectors/php/connector.php 1 -
/uploads/product/2260db515e4c29534920dd22ea8a.jpg 1 http://u0068489.isp.regruhosting.ru/site/productDetail/5
/yandex_5230489e64210439.txt 1 -
/uploads/product/preview/84e0168388c497ecc79f48132b28.jpg 33 http://u0068489.isp.regruhosting.ru/site/index
/site/lol 1 -
/public_html.tar.gz 1 -
/sys/fckeditor/editor/filemanager/browser/default/connectors/php/connector.php 1 -
/html/editor/filemanager/browser/default/connectors/php/connector.php 1 -
/yandex_7948d6dcc9d53fda.html 4 -
/thx 2 -
/wp-content/plugins/wp-symposium-pro/js/wp-symposium-pro-profile-widget/Readme.txt 1 -
/uploads/product/preview/2202f04d0b3dff994678f72e7024.jpg 2 http://comfort-beby.ru/site/productDetail/1
/netcat/admin/skins/default/css/style.css 2 -
/administrator/ 20 -
/bitrix/js/main/core/core.css 2 -
/uploads/product/preview/17df56c2387065256139389df995.png 87 http://u0068489.isp.regruhosting.ru/site/index
/images/cms/admin/mac/common/butterfly.png 2 -
/biz/editor/filemanager/browser/default/connectors/php/connector.php 1 -
/imege/73c37c512467d817956095f871f2.jpg 3 -
/plugins/editor/filemanager/browser/default/connectors/php/connector.php 1 -
/uploads/product/preview/ae4d6a500ecea7b4487c52b23017.jpg 2 http://comfort-beby.ru/site/productDetail/1
/v1/fckeditor/editor/filemanager/browser/default/connectors/php/connector.php 1 -
/uploads/product/preview/0a5afbdb55f9246cdc6d1cc0ea64.jpg 33 http://u0068489.isp.regruhosting.ru/site/productDetail/14
/webadmin/fckeditor/editor/filemanager/browser/default/connectors/php/connector.php 1 -
/wp-login.php 35 -
/js/).html()||a.find( 2 -
/uploads/product/preview/6b1b1e8ad918d74ddd4645f7811b.jpg 3 http://u0068489.isp.regruhosting.ru/
/netcat/admin/skins/default/css/login.css 2 -
/links.php 18 -
/manager/templates/default/images/restyle/headers.jpg 2 -
/Admin/fckeditor/editor/filemanager/browser/default/connectors/php/connector.php 1 -
/wp-content/plugins/revslider/release_log.txt 1 -
/__fckeditor/editor/filemanager/browser/default/connectors/php/connector.php 1 -
/administrator/FCKeditor/editor/filemanager/browser/default/connectors/php/connector.php 1 -
/_fckeditor/editor/filemanager/browser/default/connectors/php/connector.php 1 -
/uploads/product/preview/b5e65938f99d1d703e4953e25227.jpg 39 http://u0068489.isp.regruhosting.ru/site/index
/v2/fckeditor/editor/filemanager/browser/default/connectors/php/connector.php 1 -
/).html( 2 -
/modules/system/system.base.css 2 -
/cgi-sys/suspendedpage.cgi 1 -
/webeditor/editor/filemanager/browser/default/connectors/php/connector.php 1 -
/system/editor/filemanager/browser/default/connectors/php/connector.php 1 -
/system/fckeditor/editor/filemanager/browser/default/connectors/php/connector.php 1 -
/js/)[this.options.html 2 -
/site/news 1 -
/yandex_7948d6dcc9d53fda.txt 3 -
/user/login/ 2 -
/editor/editor/filemanager/browser/default/connectors/php/connector.php 1 -
/www.zip 2 -
/modules/cacheplugin.php 2 -
/styles/skins/mac/design/css/style.css 2 -
/users/registrate/ 2 -
/uploads/product/0f1d412ee8678c51adc6654976ac.jpg 1 http://comfort-beby.ru/site/productDetail/3
/++++++++++++++++++++++++++++++++++++++++++++++++++++++++++Result:+%ED%E5+%ED%E0%F8%EB%EE%F1%FC+%F4%EE%F0%EC%FB+%E4%EB%FF+%EE%F2%EF%F0%E0%E2%EA%E8 4 http://comfort-beby.ru/++++++++++++++++++++++++++++++++++++++++++++++++++++++++++Result:+%ED%E5+%ED%E0%F8%EB%EE%F1%FC+%F4%EE%F0%EC%FB+%E4%EB%FF+%EE%F2%EF%F0%E0%E2%EA%E8
/images/close_conf 4 http://comfort-beby.ru/site/index
/fck/editor/filemanager/browser/default/connectors/php/connector.php 1 -
/comfort-beby.ru.zip 1 -
/uploads/product/preview/933fd6936311e8f9c67f193c3c46.jpg 38 http://u0068489.isp.regruhosting.ru/site/index
/uploads/product/preview/cc84ccf78daf28481ced16bd6a95.jpg 109 http://u0068489.isp.regruhosting.ru/site/index
/wp-admin/images/wordpress-logo.png 2 -
/administrator/index.php 14 -
/plug-ins/fckeditor/editor/filemanager/browser/default/connectors/php/connector.php 1 -
/yandex_c6e79a40c4128ea0.txt 1 -
/site/wp-includes/css/admin-bar.css 1 -
/html/fckeditor/editor/filemanager/browser/default/connectors/php/connector.php 1 -
/js/).html( 2 -
/media/system/js/mootools.js 2 -
/bitrix/admin/ 3 -
/uploads/product/preview/88110888863f403060ca4ac9dc3c.jpg 2 http://u0068489.isp.regruhosting.ru/site/productDetail/14
/public_html.zip 1 -
/includes/editor/filemanager/browser/default/connectors/php/connector.php 1 -
/user/password/ 2 -
/administrator/fckeditor/editor/filemanager/browser/default/connectors/php/connector.php 1 -
/uploads/product/47b466056f31390c1556ea0957c9.png 1 http://u0068489.isp.regruhosting.ru/
/robots.txt 194 -
/uploads/product/preview/a2311ca4d4fe2308ac7cc4beca9e.jpg 40 http://u0068489.isp.regruhosting.ru/site/catalog
/plug-ins/editor/filemanager/browser/default/connectors/php/connector.php 1 -
/manager/ 2 -
/user 1 -
/OLD/FCKeditor/editor/filemanager/browser/default/connectors/php/connector.php 1 -
/backendbiz/editor/filemanager/browser/default/connectors/php/connector.php 1 -
/www.comfort-beby.ru 2 -
/uploads/product/preview/605c0a22f8943da442ed89aa3834.jpg 37 http://u0068489.isp.regruhosting.ru/site/index
/site/catalog 1 -
/old/FCKeditor/editor/filemanager/browser/default/connectors/php/connector.php 1 -
/js/).children().detach().end()[this.options.html 2 -
/uploads/product/preview/2260db515e4c29534920dd22ea8a.jpg 69 http://u0068489.isp.regruhosting.ru/site/index
/wp-admin/ 2 -
/js/).html($( 2 -
/uploads/product/preview/4c690276367c9f1b41d5eaba878d.jpg 47 http://u0068489.isp.regruhosting.ru/site/index
/includes/fckeditor/editor/filemanager/browser/default/connectors/php/connector.php 1 -
/m/ 4 -
/netcat/admin/ 2 -
/uploads/product/48685d9569e085930966e69f529f.png 5 http://u0068489.isp.regruhosting.ru/site/inter_man
/plugins/fckeditor/editor/filemanager/browser/default/connectors/php/connector.php 1 -
/include/editor/filemanager/browser/default/connectors/php/connector.php 1 -
/fckeditor/editor/filemanager/browser/default/connectors/php/connector.php 1 -
/wp-content/plugins/wp-symposium-pro/js/wps.admin.js 1 -
/wp-content/ 2 -
/uploads/product/1514d4d17e39057c60753caf3aa1.jpg 2 http://u0068489.isp.regruhosting.ru/site/productDetail/9
/uploads/icon/preview/circle.png 1 http://comfort-beby.ru/admin/comment/icon_list
/wp-login.phpindex.php 2 http://comfort-beby.ru/wp-login.phpindex.php
/webmanage/editor/filemanager/browser/default/connectors/php/connector.php 1 -
/webmanage/fckeditor/editor/filemanager/browser/default/connectors/php/connector.php 1 -
/FCKeditor/editor/filemanager/browser/default/connectors/php/connector.php 1 -
/uploads/product/preview/883b42af8a72b0e4a1ceb7019b88.jpg 109 http://u0068489.isp.regruhosting.ru/site/index
/v3/fckeditor/editor/filemanager/browser/default/connectors/php/connector.php 1 -
/wp-content/plugins/revolution-slider/rs-plugin/js/jquery.themepunch.revolution.min.js 1 -
/backup.zip 2 -
/admin/fckeditor/editor/filemanager/browser/default/connectors/php/connector.php 1 -
/uploads/product/d55bd33b2ba37b48b0e716bcc4ac.png 1 http://comfort-beby.ru/site/inter_woman
/js/editor/filemanager/browser/default/connectors/php/connector.php 1 -
/mobile/ 3 -
/manager/templates/default/images/style/modx-logo-header.png 2 -
/OLD/fckeditor/editor/filemanager/browser/default/connectors/php/connector.php 1 -
/apple-touch-icon-120x120.png 106 -
/site/license.txt 1 -
/sys/editor/filemanager/browser/default/connectors/php/connector.php 1 -
/uploads/product/preview/8c34cfd325b1612a584ab1488bc4.jpg 1 http://u0068489.isp.regruhosting.ru/site/productDetail/5
/uploads/product/fd0c707e06520238b3e07fa6f9cf.jpg 2 http://comfort-beby.ru/site/productDetail/1
/Admin/FCKeditor/editor/filemanager/browser/default/connectors/php/connector.php 1 -
/apple-touch-icon-120x120-precomposed.png 106 -
/manage/editor/filemanager/browser/default/connectors/php/connector.php 1 -
/v3/editor/filemanager/browser/default/connectors/php/connector.php 1 -
/media/cacheplugin.php 2 -
/uploads/icon/preview/0896d02f0dab7a915d7b3554a519.jpg 5 http://u0068489.isp.regruhosting.ru/site/comment
/uploads/icon/preview/lolol.png 3 http://comfort-beby.ru/admin/comment/userComment
/Administrator/editor/filemanager/browser/default/connectors/php/connector.php 1 -
/uploads/product/preview/745a136520c1336fc04fc24c2fee.jpg 40 http://u0068489.isp.regruhosting.ru/site/index
/adm/fckeditor/editor/filemanager/browser/default/connectors/php/connector.php 1 -
/admin/fck/editor/filemanager/browser/default/connectors/php/connector.php 1 -
/manager/media/style/MODxCarbon/images/misc/login-logo.png 2 -
/manager/media/style/MODxCarbon/images/misc/logo.png 2 -
/v1/editor/filemanager/browser/default/connectors/php/connector.php 1 -
/uploads/product/preview/8956eaa60ea9216fd407e8a3f534.jpg 1 http://u0068489.isp.regruhosting.ru/site/productDetail/5
/robots.txtindex.php 1 comfort-beby.ru/robots.txtindex.php
/js/fckeditor/editor/filemanager/browser/default/connectors/php/connector.php 1 -
/uploads/product/preview/d073d4cf1d7060d321b5ecd4b88c.jpg 1 http://u0068489.isp.regruhosting.ru/site/productDetail/5
/apple-touch-icon.png 212 -
/site/article 1 -
/uploads/product/matracs.jpg 2 -
/users/forget/ 2 -
/WebAdmin/fckeditor/editor/filemanager/browser/default/connectors/php/connector.php 1 -
/uploads/product/preview/f802286761a8be347f58f7702dca.jpg 7 http://u0068489.isp.regruhosting.ru/site/productDetail/18
/administrator/editor/filemanager/browser/default/connectors/php/connector.php 1 -
/filter/tips 2 -
/templates/system/css/system.css 2 -
/manage/fckeditor/editor/filemanager/browser/default/connectors/php/connector.php 1 -
/yandex_801f802c85044faa.txt 2 -
/Administrator/FCKeditor/editor/filemanager/browser/default/connectors/php/connector.php 1 -
/uploads/product/preview/e342cc3039e9936aa814142cd319.jpg 40 http://u0068489.isp.regruhosting.ru/site/index
/netcat/admin/skins/default/img/logo.png 2 -
/upload/fckeditor/editor/filemanager/browser/default/connectors/php/connector.php 1 -
/modules/system/system.css 2 -
/uploads/product/preview/1514d4d17e39057c60753caf3aa1.jpg 43 http://u0068489.isp.regruhosting.ru/site/catalog
/adm/editor/filemanager/browser/default/connectors/php/connector.php 1 -
/uploads/product/preview/c9cca62a18536d3df0e4d427cb72.jpg 106 http://u0068489.isp.regruhosting.ru/site/index
/uploads/icon/preview/1fb868349c7adcee2d5d1fa811aa.jpg 1 http://comfort-beby.ru/admin/comment/icon_list
/OLD/editor/filemanager/browser/default/connectors/php/connector.php 1 -
/apple-touch-icon-precomposed.png 1 -
/uploads/icon/preview/%D0%A4%D0%BE%D1%82%D0%BE4.jpg 1 http://comfort-beby.ru/site/comment
/wp-content/plugins/wp-symposium-pro/readme.txt 1 -
/installed 2 -
/biz/fckeditor/editor/filemanager/browser/default/connectors/php/connector.php 1 -
/include/fckeditor/editor/filemanager/browser/default/connectors/php/connector.php 1 -
/uploads/product/4c690276367c9f1b41d5eaba878d.jpg 2 http://u0068489.isp.regruhosting.ru/site/productDetail/18
/manager/media/style/MODxCarbon/style.css 2 -
/admin/admin_login.php 2 -
/comfort-beby.ru.tar.gz 2 -
/uploads/product/preview/fd0c707e06520238b3e07fa6f9cf.jpg 95 http://u0068489.isp.regruhosting.ru/site/index
/backendbiz/fckeditor/editor/filemanager/browser/default/connectors/php/connector.php 1 -
/wp-admin/css/wp-admin.css 2 -
/uploads/product/a2311ca4d4fe2308ac7cc4beca9e.jpg 2 http://u0068489.isp.regruhosting.ru/site/productDetail/3
/uploads/icon/preview/d3018ae1b5a922403d09b216d7d1.png 7 http://u0068489.isp.regruhosting.ru/site/comment
/uploads/product/preview/19967bbda9aa84dc2abd8a440767.jpg 106 http://u0068489.isp.regruhosting.ru/site/index
/uploads/icon/preview/child.jpg 3 http://comfort-beby.ru/admin/comment/userComment
/uploads/icon/preview/ae005267e171d2ebdbcaa219e452.png 8 http://u0068489.isp.regruhosting.ru/site/comment
/uploads/icon/preview/%D0%BE%D1%82%D0%B7%D1%8B%D0%B2.jpg 1 http://comfort-beby.ru/site/comment
/uploads/product/preview/6ebbe27ea590ef7b6a9281429955.jpg 38 http://u0068489.isp.regruhosting.ru/site/index
/uploads/product/preview/f04823b1c600db1f90c8b4bc938c.jpg 3 http://u0068489.isp.regruhosting.ru/site/productDetail/17
END_SIDER_404

# Host - Pages - Hits - Bandwidth - Last visit date - [Start date of last visit] - [Last page of last visit]
# [Start date of last visit] and [Last page of last visit] are saved only if session is not finished
# The 10 first Hits must be first (order not required for others)
BEGIN_VISITOR 208
37.190.123.254 3347 17936 390212729 20150423044049
176.62.74.166 1486 12022 251935436 20150430115505
188.232.171.226 647 4948 77686585 20150407003208
188.232.249.129 596 3730 90292138 20150408001238
188.233.244.44 312 1856 46564085 20150402204448
188.232.175.31 227 766 27871386 20150405231259
188.232.149.65 185 602 28841854 20150404224104
41.33.1.170 183 1724 69636620 20150430143002
109.194.127.136 164 840 57181093 20150415225538
188.232.213.184 120 622 28116817 20150403155550
178.210.65.27 1 1 62912 20150423040728
91.243.196.168 16 107 2815799 20150408155756
62.210.86.40 1 1 63179 20150429092419
93.84.63.167 0 1 20580 
185.58.204.15 1 1 54557 20150409115354
176.109.188.139 1 1 63099 20150421075338
52.5.49.188 1 1 54619 20150425032420
188.232.210.166 9 95 523276 20150403104501
188.232.143.11 14 114 2597922 20150402223137
178.215.84.95 13 94 2487734 20150404123600
194.28.84.189 1 1 63063 20150429092716
94.242.246.24 1 1 63104 20150429234325
46.48.214.46 0 1 23250 
77.222.104.91 0 1 215371 
213.87.137.0 7 56 1846678 20150409161159
213.87.133.189 10 112 3873442 20150403111137
95.108.145.206 2 106 2941529 20150428162157
213.80.210.110 1 1 30906 20150429151653
188.232.163.117 2 5 118357 20150423184055
176.195.9.233 2 13 833398 20150425023207
188.226.55.189 47 188 6338346 20150412223330
176.109.191.231 1 1 54421 20150409205258
37.79.255.56 1 1 40080 20150421193128
176.14.195.182 7 25 470749 20150429064533
95.153.178.44 6 61 2739213 20150407214339
188.32.179.96 0 36 850131 
5.141.194.42 1 1 63184 20150422010601
79.179.113.58 11 19 567579 20150426195745
195.91.224.113 8 29 1160475 20150419065622
128.69.147.49 2 13 231401 20150429070601
213.87.137.56 8 88 130538 20150403095019
95.221.220.219 2 13 833397 20150419065616
213.149.8.200 0 1 349734 
104.155.44.36 1 1 63001 20150422190141
176.195.171.165 8 84 7399292 20150420135609
5.9.156.12 1 1 63121 20150429092618
5.9.151.10 1 1 38004 20150426235436
89.178.89.3 2 98 2108607 20150428232807
178.212.227.179 31 314 13680963 20150407122142
178.45.43.186 9 88 2444146 20150411135744
83.149.48.45 0 1 24720 
81.176.232.174 1 1 63195 20150429092629
176.14.197.215 1 77 2123759 20150410205225
195.114.3.241 1 1 63000 20150429092725
5.139.207.254 9 87 2319456 20150405013402
185.26.122.38 1 1 63067 20150429092655
188.232.244.232 12 36 1303924 20150416170152
23.92.26.73 1 1 63081 20150430154736
37.194.202.163 13 107 2924415 20150413181614
176.195.243.189 1 44 1505094 20150428232756
95.24.208.252 2 13 833398 20150425023207
93.171.205.23 1 1 63167 20150430185248
89.178.9.159 6 24 407524 20150429070613
93.179.84.87 7 93 2109125 20150429173802
188.225.33.150 26 26 1455674 20150430023326
91.206.200.150 2 2 108790 20150414021206
2.92.152.195 8 29 1157191 20150419065636
94.158.44.213 1 1 50593 20150406203830
192.185.4.76 3 3 163335 20150412192558
89.208.147.138 4 4 237202 20150424164957
5.61.38.35 46 46 1827737 20150422102324
213.87.141.154 25 210 7146877 20150408142625
94.158.39.163 4 4 170034 20150402210549
91.243.210.86 5 83 2369520 20150409135415
213.87.141.90 12 103 3132660 20150408220532
82.145.216.19 2 89 1178031 20150426065534
91.229.229.9 8 8 302130 20150422211942
89.178.100.193 1 1 54229 20150410191343
176.9.38.197 4 4 231777 20150428032831
88.198.67.214 6 6 378454 20150430021111
46.165.15.15 7 93 2094419 20150429162620
46.165.230.103 6 6 327017 20150412192542
188.232.135.176 17 129 4044573 20150413070109
188.233.244.134 47 185 21972910 20150426201015
188.232.153.7 14 177 3235973 20150419002316
176.14.74.103 0 1 26598 
95.134.24.226 7 93 2096517 20150428160718
185.26.182.34 8 86 2277176 20150414014833
176.14.217.153 9 105 3299158 20150419054130
46.73.202.211 2 13 833398 20150425023207
188.232.96.207 1 1 54783 20150423212651
148.251.11.76 1 1 43410 20150405093917
176.77.52.113 2 88 2223643 20150419044023
109.172.2.50 0 1 10121 
94.158.40.167 1 1 54758 20150415113752
80.251.133.218 7 90 2056302 20150420145802
176.109.241.136 1 1 63081 20150423030442
109.234.35.172 1 1 63024 20150425151611
109.201.49.212 0 2 464099 
104.155.31.93 2 2 126280 20150430101913
176.109.189.218 1 1 54373 20150408030950
95.134.54.166 14 116 2749831 20150428144146
213.87.128.91 18 187 4945625 20150404150134
148.251.75.46 22 22 837412 20150428123647
79.172.45.209 7 82 2297272 20150408141719
92.249.72.13 0 1 349734 
188.232.235.78 15 41 1557014 20150413221021
213.87.134.50 8 81 2236555 20150404162858
213.87.136.205 1 1 63100 20150422110502
46.242.58.110 8 109 2352863 20150428223511
188.232.219.17 24 44 10834788 20150420225226
92.242.40.37 2 2 125883 20150430060724
95.24.220.89 2 39 1270422 20150419044023
88.198.140.4 14 89 2729069 20150425231428
128.68.36.240 1 39 1390361 20150419044011
176.109.247.26 1 1 54156 20150408093601
188.232.231.1 9 108 2320602 20150427165804
213.87.141.218 16 171 4899690 20150409133338
89.23.216.65 6 68 2386681 20150430214856
2.93.58.213 31 127 5601746 20150405214303
87.240.182.172 2 3 86110 20150414155416
37.146.112.221 1 1 63246 20150421023230
176.195.215.249 8 29 1157531 20150419065632
31.129.92.94 18 227 5719597 20150423200126
52.6.183.17 1 1 63120 20150426080952
188.232.110.168 37 150 9074038 20150402235438
95.28.141.250 1 1 40460 20150429071243
148.251.92.106 71 71 2080802 20150411125030
89.178.104.121 1 1 63181 20150424130015
37.153.44.65 9 98 2654024 20150419154247
91.243.205.144 7 83 2343997 20150412112403
66.102.6.181 1 1 43452 20150405091110
91.207.9.138 1 1 54908 20150415171329
213.87.139.12 3 10 193614 20150404181851
176.77.71.220 2 13 833398 20150425023207
23.92.75.224 1 1 56087 20150420001846
93.76.115.112 0 1 170934 
213.87.133.214 16 154 993839 20150407093317
188.232.157.240 22 133 3105168 20150424133353
188.232.195.121 22 376 5127984 20150417231651
5.141.224.117 7 84 2336260 20150412221431
85.26.183.88 0 1 14624 
188.232.245.238 19 109 516945 20150408180348
109.188.124.37 29 130 5387307 20150403100514
144.76.175.75 7 91 2085787 20150428161128
213.87.136.83 3 20 1164619 20150416094014
213.87.141.105 9 81 2212768 20150403163739
213.87.137.248 1 3 56315 20150404130800
128.69.179.149 1 77 2129290 20150412130002
213.87.132.1 10 120 4612810 20150415115501
85.235.177.214 8 60 1485462 20150429160118
89.67.14.10 1 1 50271 20150425100503
159.224.160.225 2 2 108718 20150408053932
213.87.138.224 4 25 984875 20150407172839
80.241.219.59 7 90 2072042 20150423030810
188.232.144.209 29 142 4411183 20150419155812
89.19.205.201 0 1 349734 
130.211.103.14 2 2 83186 20150403001457
46.229.167.149 2 2 108862 20150414140841
5.134.56.93 0 1 29960 
37.9.53.133 1 1 54424 20150409164423
91.216.240.98 0 1 29960 
188.232.180.58 65 284 5189425 20150422120304
176.50.90.22 7 94 2093835 20150429190053
188.232.225.226 16 115 2881524 20150411211348
217.66.156.245 17 111 10006192 20150429003647
37.17.224.24 1 1 62989 20150424180417
109.133.222.234 16 131 8118782 20150430000814
95.25.4.228 1 61 1680549 20150428232755
94.137.56.199 7 75 2122760 20150405213041
109.252.44.10 1 1 43363 20150405001600
199.30.228.156 1 1 50137 20150406125753
91.192.67.115 0 1 24566 
178.140.112.183 1 48 1695987 20150419044011
5.9.94.42 1 1 63184 20150429092710
213.87.143.97 15 119 10194350 20150416122100
5.45.242.182 17 141 11269498 20150428162808
91.234.153.162 2 2 87658 20150429154619
213.87.136.75 1 9 90501 20150413101510
5.164.97.47 2 13 833398 20150419065618
128.69.214.57 0 1 31278 
213.87.139.140 7 75 88861 20150405121006
178.210.65.242 1 1 63085 20150423025107
188.232.107.108 73 260 10119111 20150409215340
213.87.139.108 24 211 2235608 20150402174722
89.169.186.44 19 149 3085868 20150403063644
195.112.235.59 2 2 126149 20150425083844
128.75.85.110 2 13 833398 20150425023129
213.79.110.211 21 134 3912987 20150402165424
109.194.119.50 14 159 4441522 20150410063235
87.117.36.167 1 1 54378 20150413052512
213.87.135.202 14 33 7605091 20150419160547
178.207.75.22 24 119 4595357 20150407115152
95.24.221.169 1 49 1677410 20150419044011
85.233.76.6 0 1 29960 
178.19.251.121 0 2 35958 
193.232.121.217 6 6 185605 20150406020126
188.232.179.95 13 120 2626070 20150420115654
176.195.171.193 6 26 387995 20150429070614
185.52.28.11 6 66 2201188 20150429173247
213.87.139.49 7 83 2299135 20150408181523
176.14.214.110 1 86 1905226 20150424130112
89.178.10.111 1 63 2123019 20150428232756
178.207.5.170 7 91 2082088 20150430210650
178.207.109.142 7 93 2109494 20150429164009
5.19.138.13 1 1 63163 20150421003324
78.85.39.140 0 1 24508 
188.232.154.201 1 6 54810 20150416200036
END_VISITOR

# Date - Pages - Hits - Bandwidth - Visits
BEGIN_DAY 29
20150402 920 5376 115856111 13
20150403 284 1857 55071551 16
20150404 305 1750 48941822 15
20150405 467 1932 55204730 16
20150406 1440 10180 165183004 12
20150407 914 5473 122783017 20
20150408 227 1457 36708622 19
20150409 190 928 22871639 13
20150410 54 551 8218459 8
20150411 60 315 8746856 6
20150412 117 921 20988584 11
20150413 231 1025 28627618 10
20150414 304 1651 27104663 13
20150415 637 3295 134559344 9
20150416 100 565 20362658 10
20150417 39 480 5604289 4
20150418 272 861 19865142 5
20150419 266 2217 77975812 23
20150420 540 2481 90139759 12
20150421 49 63 2495158 14
20150422 119 586 19286362 15
20150423 72 683 20073142 12
20150424 34 289 6830558 7
20150425 45 301 20229081 14
20150426 114 692 38653698 11
20150427 25 301 6402361 5
20150428 111 1433 43052912 21
20150429 135 1119 35649032 29
20150430 768 7010 173205404 13
END_DAY

# Session range - Number of visits
BEGIN_SESSION 7
1h+ 40
5mn-15mn 19
0s-30s 215
15mn-30mn 11
2mn-5mn 25
30s-2mn 41
30mn-1h 25
END_SESSION

# URL - Pages - Bandwidth - Entry - Exit
# The 10 first Pages must be first (order not required for others)
BEGIN_SIDER 232
/ 592 31308710 280 128
/site/catalog/ 568 21312889 13 20
/site/_ajax 519 121897 0 2
/site/catalog 511 25418222 4 19
/admin/product/info 428 17882443 2 2
/fonts/helveticaneuecyr-roman.otf 407 8047620 0 0
/fonts/helveticaneuecyr-light.otf 407 8208900 0 4
/fonts/helveticaneuecyr-medium.otf 406 8228056 1 11
/fonts/helveticaneuecyr-bold.otf 406 8295880 0 1
/fonts/helveticaneuecyr-italic.otf 405 8456008 0 5
/admin/pole/info 6 79943 0 0
/admin/product/update/id/3 5 194885 0 0
/admin/config/update/id/6 3 25814 0 0
/site/inter_man 66 1572191 4 3
/admin/product/update/id/23 22 904357 0 0
/site/productDetail/36 39 1628110 1 2
/admin/category/create 11 162664 0 0
/admin/config/update/id/7 2 16519 0 0
//site/catalog/ 6 205830 0 1
/site/productDetail/17 20 712028 0 1
/admin/comment/userComment 20 259181 0 0
/admin/default/login 127 515750 12 1
/admin/product/info/Product_sort/product_name 1 53348 0 0
/admin/product/info/ajax/product-grid/Product_sort/categorySTR.desc 2 87615 0 0
/js/ckeditor/upload.php 8 1146 0 0
/admin/news/create 4 38017 0 0
/site/productDetail/6 42 1607432 0 1
/admin/product/update/id/40 8 317183 0 0
/fonts/glyphicons-halflings-regular.woff 120 2798400 0 0
/site/productDetail/21 1 32310 0 0
/site/productDetail/1 97 4502098 3 2
/site/article/8 6 192508 0 1
/site/catalog/8/ 4 138587 0 0
/site/productDetail/29 3 122577 0 1
/admin/product/update/id/34 12 520379 0 0
/admin/category/update/id/9 1 15552 0 0
/site/upload 2 13 0 0
/site/catalog/2/ 18 812843 0 3
/site/productDetail/26 3 117073 0 1
/admin/product/update/id/36 15 631209 0 0
/admin/article/update/id/3 3 40739 0 0
/admin/Comment/info 1 12298 0 0
/admin/act/_ajaxDelete 3 12 0 0
/site/news/3 11 341407 2 2
/admin/comment/publish_comment 5 20 0 0
/admin/category/update/id/7 3 45521 0 0
/site/productDetail/41 2 80694 0 1
/admin/product/update/id/17 12 460246 0 0
/site/productDetail/20 6 179432 0 0
/admin/article/update/id/5 1 16123 0 0
/site/productDetail/15 23 830834 3 1
/admin/order/info 42 758142 0 4
/site/article/5 6 239750 0 0
/admin/product/update/id/5 6 228314 0 0
/admin/article/_ajaxDelete 4 16 0 0
/admin/act/update/id/7 2 20100 0 0
/site/productDetail/32 3 115431 0 0
/admin/category/update/id/10 6 97426 0 0
/site/catalog/5/ 2 73495 1 1
/site/productDetail/27 3 116550 1 0
/admin/category/update/id/3 4 60407 0 0
/admin/interMan/info 31 623248 0 0
/site/productDetail/24 19 731888 0 0
/site/productDetail/34 18 789774 3 3
/admin/meta/index 16 216877 0 0
/admin/comment/delete_comment 2 8 0 0
/admin/interMan/update/id/9 1 10202 0 0
/admin/act/update/id/6 9 90069 0 0
/admin/product/update/id/22 10 396734 0 0
/admin/product/update/id/31 4 153582 0 0
/site/productDetail/30 1 40339 0 0
/admin/comment/update/id/2 1 8352 0 0
/admin/product/update/id/41 2 79809 0 0
/admin/category/update/id/1 13 212721 0 0
/admin/news/info 48 916843 0 0
/admin/interWoman/update/id/4 1 10244 0 0
/admin/product/info/Product%5Bproduct_name%5D/%D0%BA%D0%BE%D1%80%D1%81%D0%B0%D1%80/Product%5BcategorySTR%5D/Product_page/1/ajax/product-grid/Product_sort/act_id 1 29692 0 0
/admin/news/update/id/3 5 73295 0 0
/admin/order/info/ajax/product-grid/Order_sort/id.desc 1 11393 0 0
/admin/product/update/id/27 6 226761 0 0
/admin/act/update/id/5 17 171039 0 0
/admin/interWoman/update/id/10 1 10225 0 0
/site/news/5 7 223592 0 0
/admin/product/update/id/14 7 272024 0 0
/admin/product/update/id/29 4 161414 0 0
/admin/contact/create 63 821612 0 0
/admin/interWoman/update/id/1 4 40976 0 0
/site/productDetail/4 23 818373 0 0
/site/news 76 1862106 1 4
/admin/product/update/id/10 7 265322 0 0
/admin/product/info/ajax/product-grid/Product%5Bproduct_name%5D/%D0%BA%D0%BE%D1%80%D1%81%D0%B0%D1%80/Product%5BcategorySTR%5D/Product_page/1/Product_sort/discountValue.desc 1 29369 0 0
/admin/product/update/id/33 5 198991 0 0
/site/productDetail/10 18 631809 0 0
/site/catalog/10/ 2 59323 0 0
/site/productDetail/11 44 1632355 1 0
/admin/news/_ajaxDelete 3 6 0 0
/admin/article/update/id/6 9 180111 0 0
/site/catalog/4/ 3 81716 0 0
/site/article/1 7 181638 0 0
/admin/product/_ajax 28 1897 0 0
/admin/product/info/Product_sort/position 3 141278 0 0
/admin/interWoman/update/id/8 3 30712 0 0
/site/article/3 19 609920 1 0
/admin/product/update/id/38 6 231867 0 0
/admin/category/update/id/5 12 191866 0 0
/admin/news/info/News_sort/description 2 50372 0 0
/admin/product/update/id/13 7 273450 0 0
/admin/order/info/Order_page/3 4 85237 0 0
/admin/comment/info/Comment_sort/comment 1 12011 0 0
/admin/comment/delete_icon 1 4 0 0
/admin/comment/icon_list 11 119360 0 0
/admin/product/update/id/6 8 359614 0 0
/site/basket 94 3651913 0 4
/admin/region/update/id/1 2 15633 0 0
/admin/product/info/ajax/product-grid/Product_sort/product_name.desc 1 53395 0 0
/admin/product/update/id/25 10 384974 0 0
/admin/config/info 22 366318 0 0
/admin/pole/_ajaxDelete 1 4 0 0
/site 56 2879235 10 5
/site/productDetail/13 28 1022169 0 2
/admin/interWoman/update/id/13 1 10225 0 0
/admin/act/update/id/8 1 8704 0 0
/admin/interWoman/info 53 1066895 0 1
/yandex_4a9488f89f2b29ae.html 2 151232 0 0
/admin/interMan/update/id/12 1 10203 0 0
/site/productDetail/16 17 614874 0 1
/admin/product/_ajaxRoom 41 4016 0 0
/site/article/4 23 713809 2 2
/site/catalog/1/ 15 509525 0 0
/admin/product/_ajaxCategory 72 5490 0 0
/admin/region/create 4 31800 0 0
/site/productDetail/9 36 1244962 0 2
/admin/interWoman/update/id/12 2 20470 0 0
/fonts/taurus.ttf 368 16744000 0 43
/site/productDetail/37 10 400603 1 1
/admin/product/info/Product%5Bproduct_name%5D/%D0%BA%D0%BE%D1%80%D1%81%D0%B0%D1%80/Product%5BcategorySTR%5D/Product_page/1/ajax/product-grid/Product_sort/discountValue 1 29340 0 0
/site/productDetail/35 16 674093 1 4
/admin/contact/_ajax_email 1 1 0 0
/admin/product/update/id/37 5 206226 0 0
/site/productDetail/14 24 868434 1 2
/site/news/2 25 663278 2 2
/admin/category/info 248 2322961 0 0
/admin/banner/index 8 66288 0 0
/admin/news/update/id/5 6 93422 0 0
/site/productDetail/40 9 367493 0 0
/site/index 368 18281568 2 24
/site/productDetail/5 48 1692189 0 2
/admin/product/update/id/35 8 321405 0 0
/admin/product/update/id/26 7 266279 0 0
/admin/category/update/id/4 2 30187 0 0
/admin/act/info 49 686844 0 1
/admin/default/index 49 330474 0 0
/admin/product/update/id/20 1 35963 0 0
/admin/product/_ajaxDelete 3 12 0 0
/site/catalog/9/ 1 36289 0 0
/admin/interWoman/update/id/5 1 10224 0 0
/admin/interMan/update/id/4 1 10222 0 0
/admin/article/create 10 96779 0 0
/site/catalog/7/ 1 24682 0 0
/admin/comment/info 13 157091 0 0
/admin/act/update/id/3 3 30090 0 0
/admin/product/update/id/18 25 961478 0 0
/admin/article/update/id/4 15 223859 0 0
/site/productDetail/23 126 3987420 9 2
/site/productDetail/22 18 687122 0 1
/admin/product/info/ajax/product-grid/Product_sort/position 3 157439 0 0
/admin/comment/add_icon 2 18148 0 0
/site/productDetail/18 30 1066036 1 2
/admin/product/update/id/16 11 410235 0 0
/admin/news/publish 6 24 0 0
/site/news/1 1 24538 0 0
/site/productDetail/33 9 358836 0 0
/admin/interMan/update/id/7 2 20424 0 0
/site/productDetail/39 14 607665 1 1
/admin/interMan/update/id/6 1 10222 0 0
/admin/product/_ajaxDeleteImage 27 49 0 0
/site/productDetail/28 6 229486 1 1
/admin/article/info 79 2171415 0 0
/admin/order/_ajaxDelete 6 12 0 0
/admin/config/capha 4 33251 0 0
/site/comment 36 1074611 0 3
/admin/product/info/Product%5Bproduct_name%5D/%D0%9B%D0%B5%D0%B4%D0%B8/Product%5BcategorySTR%5D/Product_page/1/ajax/product-grid/Product_sort/categorySTR 1 30584 0 0
/admin/product/update/id/28 4 151512 0 0
/site/productDetail/42 13 506767 1 2
/admin/product/update/id/4 3 116947 0 0
/site/productDetail/31 7 280481 2 2
/admin/config/update/id/1 9 83338 0 0
/admin/product/_ajaxCGUpdate 14 28 0 0
/admin/comment/create 3 23146 0 0
/admin/product/info/ajax/product-grid/Product_sort/position.desc 2 104135 0 0
/site/article 49 1314157 0 3
/admin/interMan/update/id/2 2 20444 0 0
/site/about 80 2800611 0 7
/site/testMail 6 180 0 0
/admin/product/update/id/24 6 231901 0 0
/admin/news/update/id/1 2 18608 0 0
/admin/product/update/id/30 4 152925 0 0
/admin/product/update/id/39 6 243873 0 0
/admin/interWoman/update/id/3 1 10244 0 0
/site/productDetail/3 34 1277275 0 3
/site/article/6 11 397874 0 0
/site/catalog/3/ 8 329013 0 1
/admin/product/update/id/32 3 113244 0 0
/admin/product/update/id/9 10 377491 0 0
/admin/interWoman/update/id/9 2 20468 0 0
/admin/product/create 35 1249400 0 0
/admin/product/update/id/15 7 270660 0 0
/fonts/glyphicons-halflings-regular.eot 12 244020 0 8
/admin/product/update/id/42 5 208543 0 0
/admin/product/update/id/11 15 605978 0 0
/admin/interWoman/update/id/2 3 30732 0 0
/admin/product/info/Product_sort/discountValue 1 36804 0 0
/admin/product/popular 5 74 0 0
/site/productDetail/25 12 463467 1 1
/admin/interMan/update/id/13 1 10203 0 0
/admin/category/update/id/6 2 30162 0 0
/admin/region/info 13 135206 0 0
/admin/comment/view_icon 2 8 0 0
/site/catalog/6/ 3 91791 2 1
/admin/interMan/update/id/8 1 10202 0 0
/admin 57 386900 1 1
/admin/product/info/Product_sort/categorySTR 1 56919 0 0
/admin/interWoman/update/id/7 2 20468 0 0
/admin/product/update/id/1 28 1229641 0 0
/site/productDetail/38 7 302641 1 4
/admin/article/update/id/1 2 19674 0 0
/admin/act/create 3 25608 0 0
/index.php 4 243740 1 4
/admin/order/info/ajax/product-grid/Order_sort/id 2 22728 0 0
/admin/category/update/id/2 4 60408 0 0
/site/how 37 1125455 1 3
/site/inter_woman 40 977663 2 5
END_SIDER
